%YAML 1.1
%TAG !u! tag:unity3d.com,2011:
--- !u!114 &11400000
MonoBehaviour:
  m_ObjectHideFlags: 0
  m_CorrespondingSourceObject: {fileID: 0}
  m_PrefabInstance: {fileID: 0}
  m_PrefabAsset: {fileID: 0}
  m_GameObject: {fileID: 0}
  m_Enabled: 1
  m_EditorHideFlags: 0
  m_Script: {fileID: 11500000, guid: cc83d13fa38aa9d459d0a695f54f9434, type: 3}
  m_Name: SkulkCard
  m_EditorClassIdentifier: 
  backSprite: {fileID: 3286163911610860551, guid: a697c0dab3372b84e9dd4223e9302b92, type: 3}
  frontSprite: {fileID: 3286163911610860551, guid: a83bddaf03f7b844f82bbf5b562842a7, type: 3}
  image: {fileID: 10915, guid: 0000000000000000f000000000000000, type: 0}
  cardName: The Skulk
  cardDesc: Weak but useful for defence
  health: 65
  mana: 20
  damage: 0
